SticsRFiles
…
Get parameter names

get_param_info() is used to get parameter names from XML
files:

get_param_info(param = "lai")
#> # A tibble: 21 × 5
#>   name        file               min   max formalism          
#>   <chr>       <chr>            <dbl> <dbl> <chr>              
#> 1 lai0        file_ini.xml NA         NA   none               
#> 2 codelaitr   file_plt.xml  1          2   leaves             
#> 3 codlainet   file_plt.xml  1          2   cultivar parameters
#> 4 dlaimax     file_plt.xml  0.000005   0.5 cultivar parameters
#> 5 dlaimaxbrut file_plt.xml  0.000005   0.5 cultivar parameters
#> # … with 16 more rows

We can also read the parameters inside a particular XML file. This
helps users of custom or old versions of JavaSTICS still get the
parameters:

get_param_info(file = plant_file)
#> # A tibble: 314 × 5
#>   name      file               min   max formalism                        
#>   <chr>     <chr>            <dbl> <dbl> <chr>                            
#> 1 Efremobil maisopti_plt.xml     0     1 partitioning of biomass in organs
#> 2 INNimin   maisopti_plt.xml     0     1 nitrogen                         
#> 3 INNmin    maisopti_plt.xml     0     1 nitrogen                         
#> 4 Kmabs1    maisopti_plt.xml    20   200 nitrogen                         
#> 5 Kmabs2    maisopti_plt.xml  4000 40000 nitrogen                         
#> # … with 309 more rows
…
